<?xml version="1.0" encoding="UTF-8" standalone="no"?>
<!DOCTYPE svg PUBLIC "-//W3C//DTD SVG 1.1//EN" "http://www.w3.org/Graphics/SVG/1.1/DTD/svg11.dtd">
<svg xmlns="http://www.w3.org/2000/svg" version="1.1" xmlns:xlink="http://www.w3.org/1999/xlink" viewBox="0 0 512 288">

<!-- Copyright 2015-2022 Isaac Gouy -->

<!-- Box plot chart showing benchmark program performance grouped by implementation language -->

<!-- The Computer Language Benchmarks Game -->
<!-- https://benchmarksgame-team.pages.debian.net/benchmarksgame/license.html -->

<g style="stroke: #ccc;" >
<line x1="51" y1="264" x2="461" y2="264" />
<line x1="51" y1="221.57" x2="461" y2="221.57" />
<line x1="51" y1="201.85" x2="461" y2="201.85" />
<line x1="51" y1="175.08" x2="461" y2="175.08" />
<line x1="51" y1="132.65" x2="461" y2="132.65" />
<line x1="51" y1="112.92" x2="461" y2="112.92" />
<line x1="51" y1="86.15" x2="461" y2="86.15" />
<line x1="51" y1="43.73" x2="461" y2="43.73" />
<line x1="51" y1="24" x2="461" y2="24" />
</g>
<g style="text-anchor: end; font-family: Ubuntu,Verdana,sans-serif; font-size: 0.9em;" >
<text x="51" y="262" >1</text>
<text x="51" y="219.57" >3</text>
<text x="51" y="199.85" >5</text>
<text x="51" y="173.08" >10</text>
<text x="51" y="130.65" >30</text>
<text x="51" y="110.92" >50</text>
<text x="51" y="84.15" >100</text>
<text x="51" y="41.73" >300</text>
<text x="51" y="22" ></text>
</g>
<defs>
<linearGradient id="grade" x1="0" y1="0" x2="0" y2="1">
<stop offset="0" style="stop-color: white" stop-opacity="0.6"/>
<stop offset="1" style="stop-color: white" stop-opacity="0.8"/>
</linearGradient>
<mask id="fade">
<rect x="58" y="24" width="452" height="288" fill="url(#grade)"  />
</mask>
<g id="backgroundText" style="text-anchor: end; font-family: Ubuntu,Verdana,sans-serif; font-size: 1em;">
<text x="16" y="0" transform="rotate(270,16,0)" xml:space="preserve">   C gcc   C gcc   C gcc   C gcc   C gcc</text>
<text x="43" y="0" transform="rotate(270,43,0)" xml:space="preserve">   C++ g++   C++ g++   C++ g++   C++ g++</text>
<text x="70" y="0" transform="rotate(270,70,0)" xml:space="preserve">   Rust   Rust   Rust   Rust   Rust   Rust</text>
<text x="97" y="0" transform="rotate(270,97,0)" xml:space="preserve">   C# naot   C# naot   C# naot   C# naot</text>
<text x="124" y="0" transform="rotate(270,124,0)" xml:space="preserve">   Chapel   Chapel   Chapel   Chapel   Chapel</text>
<text x="151" y="0" transform="rotate(270,151,0)" xml:space="preserve">   Intel Fortran   Intel Fortran   Intel Fortran</text>
<text x="178" y="0" transform="rotate(270,178,0)" xml:space="preserve">   Julia   Julia   Julia   Julia   Julia</text>
<text x="205" y="0" transform="rotate(270,205,0)" xml:space="preserve">   Ada 2012 GNAT   Ada 2012 GNAT   Ada 2012 GNAT</text>
<text x="232" y="0" transform="rotate(270,232,0)" xml:space="preserve">   Haskell GHC   Haskell GHC   Haskell GHC</text>
<text x="259" y="0" transform="rotate(270,259,0)" xml:space="preserve">   Lisp SBCL   Lisp SBCL   Lisp SBCL</text>
<text x="286" y="0" transform="rotate(270,286,0)" xml:space="preserve">   Swift   Swift   Swift   Swift   Swift</text>
<text x="313" y="0" transform="rotate(270,313,0)" xml:space="preserve">   F#   F#   F#   F#   F#   F#   F#   F#   F#   F#</text>
<text x="340" y="0" transform="rotate(270,340,0)" xml:space="preserve">   Go   Go   Go   Go   Go   Go   Go   Go   Go   Go</text>
<text x="367" y="0" transform="rotate(270,367,0)" xml:space="preserve">   Java naot   Java naot   Java naot</text>
<text x="394" y="0" transform="rotate(270,394,0)" xml:space="preserve">   OCaml   OCaml   OCaml   OCaml   OCaml</text>
</g>
</defs>
<use x="60" y="27" xlink:href="#backgroundText"/>
<rect x="58" y="24" width="452" height="288" fill="white" mask="url(#fade)" />
<rect x="58" y="264" width="452" height="288" style="fill: white; stroke: white;" />
<g style="fill: black; stroke: black;">
<rect x="72" y="245.97" width="1" height="18.03" />
<rect x="99" y="237.75" width="1" height="26.25" />
<rect x="126" y="237.8" width="1" height="24.58" />
<rect x="153" y="207.85" width="1" height="55.57" />
<rect x="180" y="203.65" width="1" height="59.24" />
<rect x="207" y="197.05" width="1" height="48.5" />
<rect x="234" y="212.56" width="1" height="38.38" />
<rect x="261" y="191.68" width="1" height="48.19" />
<rect x="288" y="186.67" width="1" height="59.87" />
<rect x="315" y="184.17" width="1" height="42.58" />
<rect x="342" y="178.53" width="1" height="69.07" />
<rect x="369" y="179.08" width="1" height="58.47" />
<rect x="396" y="203.3" width="1" height="17.65" />
<rect x="423" y="196.93" width="1" height="26.41" />
<rect x="450" y="180.54" width="1" height="37.24" />
</g>
<g style="fill: white; stroke: black;">
<rect x="62" y="255.76" width="22" height="8.24" />
<rect x="89" y="244.11" width="22" height="19.43" />
<rect x="116" y="241.6" width="22" height="14.92" />
<rect x="143" y="227.12" width="22" height="21.8" />
<rect x="170" y="216.6" width="22" height="31.6" />
<rect x="197" y="205.35" width="22" height="38.75" />
<rect x="224" y="224.1" width="22" height="18.3" />
<rect x="251" y="206.44" width="22" height="17.98" />
<rect x="278" y="202.26" width="22" height="15.55" />
<rect x="305" y="199.86" width="22" height="15.7" />
<rect x="332" y="198.14" width="22" height="23.77" />
<rect x="359" y="202.29" width="22" height="30.78" />
<rect x="386" y="205.39" width="22" height="8.74" />
<rect x="413" y="207.66" width="22" height="9.28" />
<rect x="440" y="184.42" width="22" height="28.47" />
</g>
<g style="fill: black; stroke: black;">
<line x1="68.5" y1="264" x2="78" y2="264" />
<line x1="68.5" y1="245.97" x2="78" y2="245.97" />
<line x1="68.5" y1="237.59" x2="78" y2="237.59" />
<rect x="72" y="237.59" width="1" height="5" />
</g>
<g style="fill: black; stroke: black;">
<rect x="63" y="263" width="20" height="1" />
</g>
<g style="fill: black; stroke: black;">
<line x1="95.5" y1="264" x2="105" y2="264" />
<line x1="95.5" y1="237.75" x2="105" y2="237.75" />
</g>
<g style="fill: black; stroke: black;">
<rect x="90" y="253.66" width="20" height="1" />
</g>
<g style="fill: black; stroke: black;">
<line x1="122.5" y1="262.38" x2="132" y2="262.38" />
<line x1="122.5" y1="237.8" x2="132" y2="237.8" />
</g>
<g style="fill: black; stroke: black;">
<rect x="117" y="248.94" width="20" height="1" />
</g>
<g style="fill: black; stroke: black;">
<line x1="149.5" y1="263.42" x2="159" y2="263.42" />
<line x1="149.5" y1="207.85" x2="159" y2="207.85" />
<line x1="149.5" y1="197.16" x2="159" y2="197.16" />
<rect x="153" y="197.16" width="1" height="5" />
</g>
<g style="fill: black; stroke: black;">
<rect x="144" y="240.8" width="20" height="1" />
</g>
<g style="fill: black; stroke: black;">
<line x1="176.5" y1="262.88" x2="186" y2="262.88" />
<line x1="176.5" y1="203.65" x2="186" y2="203.65" />
</g>
<g style="fill: black; stroke: black;">
<rect x="171" y="239.93" width="20" height="1" />
</g>
<g style="fill: black; stroke: black;">
<line x1="203.5" y1="245.56" x2="213" y2="245.56" />
<line x1="203.5" y1="197.05" x2="213" y2="197.05" />
</g>
<g style="fill: black; stroke: black;">
<rect x="198" y="234.32" width="20" height="1" />
</g>
<g style="fill: black; stroke: black;">
<line x1="230.5" y1="250.94" x2="240" y2="250.94" />
<line x1="230.5" y1="212.56" x2="240" y2="212.56" />
</g>
<g style="fill: black; stroke: black;">
<rect x="225" y="230.24" width="20" height="1" />
</g>
<g style="fill: black; stroke: black;">
<line x1="257.5" y1="239.88" x2="267" y2="239.88" />
<line x1="257.5" y1="191.68" x2="267" y2="191.68" />
</g>
<g style="fill: black; stroke: black;">
<rect x="252" y="216.69" width="20" height="1" />
</g>
<g style="fill: black; stroke: black;">
<line x1="284.5" y1="246.55" x2="294" y2="246.55" />
<line x1="284.5" y1="186.67" x2="294" y2="186.67" />
<line x1="284.5" y1="159.45" x2="294" y2="159.45" />
<rect x="288" y="159.45" width="1" height="5" />
</g>
<g style="fill: black; stroke: black;">
<rect x="279" y="213.75" width="20" height="1" />
</g>
<g style="fill: black; stroke: black;">
<line x1="311.5" y1="226.76" x2="321" y2="226.76" />
<line x1="311.5" y1="184.17" x2="321" y2="184.17" />
<line x1="311.5" y1="178.01" x2="321" y2="178.01" />
<rect x="315" y="178.01" width="1" height="5" />
</g>
<g style="fill: black; stroke: black;">
<rect x="306" y="212.24" width="20" height="1" />
</g>
<g style="fill: black; stroke: black;">
<line x1="338.5" y1="247.61" x2="348" y2="247.61" />
<line x1="338.5" y1="178.53" x2="348" y2="178.53" />
</g>
<g style="fill: black; stroke: black;">
<rect x="333" y="211.04" width="20" height="1" />
</g>
<g style="fill: black; stroke: black;">
<line x1="365.5" y1="237.55" x2="375" y2="237.55" />
<line x1="365.5" y1="179.08" x2="375" y2="179.08" />
<line x1="365.5" y1="98.69" x2="375" y2="98.69" />
<rect x="369" y="98.69" width="1" height="5" />
</g>
<g style="fill: black; stroke: black;">
<rect x="360" y="210.97" width="20" height="1" />
</g>
<g style="fill: black; stroke: black;">
<line x1="392.5" y1="220.95" x2="402" y2="220.95" />
<line x1="392.5" y1="203.3" x2="402" y2="203.3" />
</g>
<g style="fill: black; stroke: black;">
<rect x="387" y="209.95" width="20" height="1" />
</g>
<g style="fill: black; stroke: black;">
<line x1="419.5" y1="223.34" x2="429" y2="223.34" />
<line x1="419.5" y1="196.93" x2="429" y2="196.93" />
<line x1="419.5" y1="183.83" x2="429" y2="183.83" />
<rect x="423" y="183.83" width="1" height="5" />
</g>
<g style="fill: black; stroke: black;">
<rect x="414" y="208.85" width="20" height="1" />
</g>
<g style="fill: black; stroke: black;">
<line x1="446.5" y1="217.78" x2="456" y2="217.78" />
<line x1="446.5" y1="180.54" x2="456" y2="180.54" />
</g>
<g style="fill: black; stroke: black;">
<rect x="441" y="206.74" width="20" height="1" />
</g>
<g style="text-anchor: end; font-family: Ubuntu,Verdana,sans-serif; font-size: 0.9em;" >
<text x="462" y="282" >05 Mar 2025 u64q</text>
<text x="58" y="282" style="text-anchor: start;" >benchmarks game 7</text>
</g>
<text x="16" y="144" transform="rotate(270,16,144)" style="text-anchor: middle; font-family: Ubuntu,Verdana,sans-serif; font-size: 0.9em;" >program cpu seconds / lowest</text>
<rect x="58" y="0" width="452" height="23" style="fill: white; stroke: white;" />
<text x="259.5" y="18" style="text-anchor: middle; font-family: Ubuntu,Verdana,sans-serif; font-size: 1.2em;" >How many times more CPU? (Percentiles)</text>
<g style="stroke: #333;">
<line x1="58" y1="24" x2="58" y2="264" />
<line x1="461" y1="24" x2="461" y2="264" />
<line x1="58" y1="264" x2="461" y2="264" />
</g>
</svg>

